void ping_pong(){
	for (int i = 1; i <= 100; i++)
	

		SI (((i % 3 == 0) AND (i % 5 == 0))){
			imprimir("ping-pong");
		}
		SINO (i % 3 == 0)
		{
			imprimir("ping");
		}
		SINO  (i %5 == 0)
		{
			imprimir("pong");
		}
		SINO
		{
			imprimir(i);
		}
		FINSI
	
	EndFor
}